waveform.vcd
$date
	Mon Aug 21 21:45:22 2023
$end
$version
	Icarus Verilog
$end
$timescale
	1s
$end
$scope module data_unpack_basic_tb $end
$scope module DUT $end
$var wire 1 ! clk $end
$var wire 32 " data_in [31:0] $end
$var wire 1 # eop_in $end
$var wire 1 $ eop_out $end
$var wire 1 % ready_out $end
$var wire 1 & rst $end
$var wire 1 ' sop_in $end
$var wire 1 ( valid_in $end
$var wire 1 ) valid_out $end
$var wire 1 * data_done $end
$var reg 32 + data_in_reg [31:0] $end
$var reg 7 , data_out [6:0] $end
$var reg 1 - eop_reg $end
$var reg 2 . next_state [1:0] $end
$var reg 3 / packet_num [2:0] $end
$var reg 7 0 residual_bits [6:0] $end
$var reg 3 1 shift_counts [2:0] $end
$var reg 1 2 sop_out $end
$var reg 2 3 state [1:0] $end
$upscope $end
$upscope $end
$enddefinitions $end
$comment Show the parameter values. $end
$dumpall
$end
#0
$dumpvars
bx 3
x2
bx 1
bx 0
bx /
bx .
x-
bx ,
bx +
x*
x)
x(
x'
0&
x%
x$
x#
bx "
0!
$end
#5
1%
0)
b0 3
b0 /
b0 0
b0 ,
1*
b0 1
b0 .
0$
0-
02
b0 +
1!
#10
0!
#15
1!
#20
0!
#25
1!
#30
0!
#35
1!
#40
0!
#45
1!
#50
0!
0(
b0 "
0#
0'
1&
#55
1!
#60
b1 .
0!
1(
b10010001101000101011001111000 "
1'
#65
0(
b10 .
0%
b1 3
1!
#70
0!
#75
0*
b11 1
b1111000 ,
b1001000110100010101100 +
1)
b10 3
12
1!
#80
0!
#85
b100100011010001 +
b101100 ,
b10 1
02
1!
#90
0!
#95
b1 1
b1010001 ,
b10010001 +
1!
#100
0!
#105
b11 .
b1 +
b10001 ,
1*
b0 1
1!
#110
0!
#115
b1 .
1(
b10011010101111001101111011110000 "
0'
1%
0*
b111 1
b1 ,
b1 0
b0 +
0)
b11 3
1!
#120
0!
#125
0(
b10 .
0%
b1 3
b1 /
b0 ,
1!
#130
0!
#135
b100 1
b1 ,
b10011010101111001101111011110 +
1)
b10 3
1!
#140
0!
#145
b10000001001101010111100110111 +
b1011110 ,
b11 1
1!
#150
0!
#155
b10 1
b110111 ,
b10000001000000100110101011110 +
1!
#160
0!
#165
b10000001000000100000010011010 +
b1011110 ,
b1 1
1!
#170
0!
#175
b11 .
1*
b0 1
b11010 ,
b10000001000000100000010000001 +
1!
#180
0!
#185
b1 .
1(
b1111111011011100101110101001 "
1%
0)
b11 3
b1 ,
0*
b111 1
1!
#190
0!
#195
0(
b10 .
0%
b0 ,
b10 /
b1 3
b0 +
1!
#200
0!
#205
1)
b10 3
b1111111011011100101110 +
b1010011 ,
b11 1
1!
#210
0!
#215
b10 1
b101110 ,
b111111101101110 +
1!
#220
0!
#225
b11111110 +
b1101110 ,
b1 1
1!
#230
0!
#235
b11 .
1*
b0 1
b1111110 ,
b1 +
1!
#240
0!
#245
b1 .
1(
b10000111011001010100001100100001 "
1%
0)
b11 3
b0 +
b1 ,
0*
b111 1
1!
#250
0!
#255
0(
b10 .
0%
b0 ,
b11 /
b1 3
1!
#260
0!
#265
1)
b10 3
b100001110110010101000011001000 +
b100001 ,
b100 1
1!
#270
0!
#275
b11 1
b1001000 ,
b100000010000111011001010100001 +
1!
#280
0!
#285
b100000010000001000011101100101 +
b100001 ,
b10 1
1!
#290
0!
#295
b1 1
b1100101 ,
b100000010000001000000100001110 +
1!
#300
0!
#305
b11 .
b100000010000001000000100000010 +
b1110 ,
1*
b0 1
1!
#310
0!
#315
b1 .
1(
b1010110011110000001001000110100 "
1%
0*
b111 1
b10 ,
b10 0
0)
b11 3
1!
#320
0!
#325
0(
b10 .
0%
b1 3
b100 /
b0 ,
b0 +
1!
#330
0!
#335
b11 1
b1010010 ,
b10101100111100000010010001 +
1)
b10 3
1!
#340
0!
#345
b1010110011110000001 +
b10001 ,
b10 1
1!
#350
0!
#355
b1 1
b1 ,
b101011001111 +
1!
#360
0!
#365
b11 .
b10101 +
b1001111 ,
1*
b0 1
1!
#370
0!
#375
b1 .
1(
b11011110111100001001101010111100 "
1%
0*
b111 1
b10101 ,
b10101 0
b0 +
0)
b11 3
1!
#380
0!
#385
0(
b10 .
0%
b1 3
b101 /
b0 ,
1!
#390
0!
#395
b100 1
b10101 ,
b1101111011110000100110101011110 +
1)
b10 3
1!
#400
0!
#405
b1100000110111101111000010011010 +
b1011110 ,
b11 1
1!
#410
0!
#415
b10 1
b11010 ,
b1100000110000011011110111100001 +
1!
#420
0!
#425
b1100000110000011000001101111011 +
b1100001 ,
b1 1
1!
#430
0!
#435
b11 .
1*
b0 1
b1111011 ,
b1100000110000011000001100000110 +
1!
#440
0!
#445
b1 .
1(
b1010101010101010101010101010101 "
1%
0)
b11 3
b110 0
b110 ,
0*
b111 1
1!
#450
0!
#455
0(
b10 .
0%
b0 ,
b110 /
b1 3
b0 +
1!
#460
0!
#465
1)
b10 3
b101010101010101010101010101 +
b101110 ,
b100 1
1!
#470
0!
#475
b11 1
b1010101 ,
b10101010101010101010 +
1!
#480
0!
#485
b1010101010101 +
b101010 ,
b10 1
1!
#490
0!
#495
b1 1
b1010101 ,
b101010 +
1!
#500
0!
#505
b11 .
b0 +
b101010 ,
1*
b0 1
1!
#510
0!
#515
b1 .
1#
1(
b10101010101010101010101010101010 "
1%
0*
b111 1
b0 ,
b0 0
0)
b11 3
1!
#520
0!
#525
0(
b10 .
0%
b1 3
b0 /
1!
#530
0!
#535
b11 1
b101010 ,
b1010101010101010101010101 +
1)
b10 3
1-
1!
#540
0!
#545
b101010101010101010 +
b1010101 ,
b10 1
1!
#550
0!
#555
b1 1
b101010 ,
b10101010101 +
1!
#560
0!
#565
1$
b0 .
b1010 +
b1010101 ,
1*
b0 1
1!
#570
0!
#575
0$
1%
0*
b111 1
b1010 ,
b1010 0
b0 +
0)
b0 3
1!
#580
0!
#585
b0 ,
1!
